Processador_v1_uniciclo/simulation/qsim/Processador_v1_uniciclo.msim.vcd
$comment
	File created using the following command:
		vcd file Processador_v1_uniciclo.msim.vcd -direction
$end
$date
	Thu Nov 29 12:47:24 2018
$end
$version
	ModelSim Version 10.5b
$end
$timescale
	1ps
$end

$scope module datapath_vhd_vec_tst $end
$var wire 1 ! Clock_Sistema $end

$scope module i1 $end
$var wire 1 " gnd $end
$var wire 1 # vcc $end
$var wire 1 $ unknown $end
$var wire 1 % devoe $end
$var wire 1 & devclrn $end
$var wire 1 ' devpor $end
$var wire 1 ( ww_devoe $end
$var wire 1 ) ww_devclrn $end
$var wire 1 * ww_devpor $end
$var wire 1 + ww_Clock_Sistema $end
$var wire 1 , \Clock_Sistema~input_o\ $end
$var wire 1 - \~QUARTUS_CREATED_GND~I_combout\ $end
$upscope $end
$upscope $end
$enddefinitions $end
#0
$dumpvars
1!
0"
1#
x$
1%
1&
1'
1(
1)
1*
1+
1,
x-
$end
#10000
0!
0+
0,
#20000
1!
1+
1,
#30000
0!
0+
0,
#40000
1!
1+
1,
#50000
0!
0+
0,
#60000
1!
1+
1,
#70000
0!
0+
0,
#80000
1!
1+
1,
#90000
0!
0+
0,
#100000
1!
1+
1,
#110000
0!
0+
0,
#120000
1!
1+
1,
#130000
0!
0+
0,
#140000
1!
1+
1,
#150000
0!
0+
0,
#160000
1!
1+
1,
#170000
0!
0+
0,
#180000
1!
1+
1,
#190000
0!
0+
0,
#200000
1!
1+
1,
#210000
0!
0+
0,
#220000
1!
1+
1,
#230000
0!
0+
0,
#240000
1!
1+
1,
#250000
0!
0+
0,
#260000
1!
1+
1,
#270000
0!
0+
0,
#280000
1!
1+
1,
#290000
0!
0+
0,
#300000
1!
1+
1,
#310000
0!
0+
0,
#320000
1!
1+
1,
#330000
0!
0+
0,
#340000
1!
1+
1,
#350000
0!
0+
0,
#360000
1!
1+
1,
#370000
0!
0+
0,
#380000
1!
1+
1,
#390000
0!
0+
0,
#400000
1!
1+
1,
#410000
0!
0+
0,
#420000
1!
1+
1,
#430000
0!
0+
0,
#440000
1!
1+
1,
#450000
0!
0+
0,
#460000
1!
1+
1,
#470000
0!
0+
0,
#480000
1!
1+
1,
#490000
0!
0+
0,
#500000
1!
1+
1,
#510000
0!
0+
0,
#520000
1!
1+
1,
#530000
0!
0+
0,
#540000
1!
1+
1,
#550000
0!
0+
0,
#560000
1!
1+
1,
#570000
0!
0+
0,
#580000
1!
1+
1,
#590000
0!
0+
0,
#600000
1!
1+
1,
#610000
0!
0+
0,
#620000
1!
1+
1,
#630000
0!
0+
0,
#640000
1!
1+
1,
#650000
0!
0+
0,
#660000
1!
1+
1,
#670000
0!
0+
0,
#680000
1!
1+
1,
#690000
0!
0+
0,
#700000
1!
1+
1,
#710000
0!
0+
0,
#720000
1!
1+
1,
#730000
0!
0+
0,
#740000
1!
1+
1,
#750000
0!
0+
0,
#760000
1!
1+
1,
#770000
0!
0+
0,
#780000
1!
1+
1,
#790000
0!
0+
0,
#800000
1!
1+
1,
#810000
0!
0+
0,
#820000
1!
1+
1,
#830000
0!
0+
0,
#840000
1!
1+
1,
#850000
0!
0+
0,
#860000
1!
1+
1,
#870000
0!
0+
0,
#880000
1!
1+
1,
#890000
0!
0+
0,
#900000
1!
1+
1,
#910000
0!
0+
0,
#920000
1!
1+
1,
#930000
0!
0+
0,
#940000
1!
1+
1,
#950000
0!
0+
0,
#960000
1!
1+
1,
#970000
0!
0+
0,
#980000
1!
1+
1,
#990000
0!
0+
0,
